module ignit

go 1.20

require (
	github.com/melbahja/goph v1.3.1
	golang.org/x/crypto v0.6.0
)

require (
	github.com/kr/fs v0.1.0 // indirect
	github.com/pkg/errors v0.9.1 // indirect
	github.com/pkg/sftp v1.13.5 // indirect
	golang.org/x/sys v0.5.0 // indirect
	golang.org/x/term v0.5.0 // indirect
)
